\relax 
\bbl@beforestart
\abx@aux@refcontext{none/global//global/global}
\@writefile{toc}{\boolfalse {citerequest}\boolfalse {citetracker}\boolfalse {pagetracker}\boolfalse {backtracker}\relax }
\@writefile{lof}{\boolfalse {citerequest}\boolfalse {citetracker}\boolfalse {pagetracker}\boolfalse {backtracker}\relax }
\@writefile{lot}{\boolfalse {citerequest}\boolfalse {citetracker}\boolfalse {pagetracker}\boolfalse {backtracker}\relax }
\babel@aux{english}{}
\abx@aux@cite{muramatsu2011}
\abx@aux@segm{0}{0}{muramatsu2011}
\abx@aux@cite{moody2014}
\abx@aux@segm{0}{0}{moody2014}
\abx@aux@cite{giannakouris2010}
\abx@aux@segm{0}{0}{giannakouris2010}
\abx@aux@cite{carrillo-larco2019}
\abx@aux@segm{0}{0}{carrillo-larco2019}
\abx@aux@cite{goyal2019}
\abx@aux@segm{0}{0}{goyal2019}
\abx@aux@cite{chua2014}
\abx@aux@segm{0}{0}{chua2014}
\abx@aux@cite{glucowise2019}
\abx@aux@segm{0}{0}{glucowise2019}
\abx@aux@cite{mori2012}
\abx@aux@segm{0}{0}{mori2012}
\@writefile{toc}{\contentsline {section}{\numberline {1}Shiba-kun: In-house Healthcare Assistant}{3}\protected@file@percent }
\@writefile{toc}{\contentsline {subsection}{\numberline {1.1}Physical Design}{3}\protected@file@percent }
\@writefile{lof}{\contentsline {figure}{\numberline {1}{\ignorespaces }}{3}\protected@file@percent }
\newlabel{fig:robot}{{1}{3}}
\@writefile{lof}{\contentsline {figure}{\numberline {2}{\ignorespaces }}{3}\protected@file@percent }
\newlabel{fig:login}{{2}{3}}
\abx@aux@cite{tan2015}
\abx@aux@segm{0}{0}{tan2015}
\@writefile{lof}{\contentsline {figure}{\numberline {3}{\ignorespaces }}{4}\protected@file@percent }
\newlabel{fig:prototype}{{3}{4}}
\@writefile{toc}{\contentsline {subsection}{\numberline {1.2}Input and Display Interface}{4}\protected@file@percent }
\@writefile{lof}{\contentsline {figure}{\numberline {4}{\ignorespaces }}{4}\protected@file@percent }
\newlabel{fig:display}{{4}{4}}
\abx@aux@cite{vandervelden2019}
\abx@aux@segm{0}{0}{vandervelden2019}
\abx@aux@cite{yan2020}
\abx@aux@segm{0}{0}{yan2020}
\abx@aux@cite{samsung2020}
\abx@aux@segm{0}{0}{samsung2020}
\@writefile{toc}{\contentsline {subsection}{\numberline {1.3}Interface Design}{5}\protected@file@percent }
\@writefile{lof}{\contentsline {figure}{\numberline {5}{\ignorespaces }}{5}\protected@file@percent }
\newlabel{fig:ui}{{5}{5}}
\@writefile{lof}{\contentsline {figure}{\numberline {6}{\ignorespaces }}{6}\protected@file@percent }
\newlabel{fig:dial}{{6}{6}}
\@writefile{lof}{\contentsline {figure}{\numberline {7}{\ignorespaces }}{6}\protected@file@percent }
\newlabel{fig:iterations}{{7}{6}}
\@writefile{lof}{\contentsline {figure}{\numberline {8}{\ignorespaces }}{6}\protected@file@percent }
\newlabel{fig:historical}{{8}{6}}
\abx@aux@cite{fishbach2010}
\abx@aux@segm{0}{0}{fishbach2010}
\abx@aux@cite{burgers2015}
\abx@aux@segm{0}{0}{burgers2015}
\abx@aux@cite{dellasega2012}
\abx@aux@segm{0}{0}{dellasega2012}
\@writefile{toc}{\contentsline {subsection}{\numberline {1.4}Recording Measurements}{7}\protected@file@percent }
\@writefile{lof}{\contentsline {figure}{\numberline {9}{\ignorespaces }}{7}\protected@file@percent }
\newlabel{fig:input}{{9}{7}}
\@writefile{lof}{\contentsline {figure}{\numberline {10}{\ignorespaces }}{7}\protected@file@percent }
\newlabel{fig:feedback}{{10}{7}}
\@writefile{lof}{\contentsline {figure}{\numberline {11}{\ignorespaces }}{8}\protected@file@percent }
\newlabel{fig:flow}{{11}{8}}
\@writefile{toc}{\contentsline {section}{\numberline {2}Development}{9}\protected@file@percent }
\@writefile{lof}{\contentsline {figure}{\numberline {12}{\ignorespaces }}{9}\protected@file@percent }
\newlabel{fig:tablet}{{12}{9}}
\@writefile{lof}{\contentsline {figure}{\numberline {13}{\ignorespaces }}{9}\protected@file@percent }
\newlabel{fig:android}{{13}{9}}
\@writefile{lof}{\contentsline {figure}{\numberline {14}{\ignorespaces }}{10}\protected@file@percent }
\newlabel{fig:arduino}{{14}{10}}
\@writefile{toc}{\contentsline {section}{\numberline {3}Interaction Demo}{11}\protected@file@percent }
\@writefile{lof}{\contentsline {figure}{\numberline {15}{\ignorespaces }}{11}\protected@file@percent }
\newlabel{fig:demo}{{15}{11}}
\abx@aux@refcontextdefaultsdone
\abx@aux@defaultrefcontext{0}{muramatsu2011}{none/global//global/global}
\abx@aux@defaultrefcontext{0}{moody2014}{none/global//global/global}
\abx@aux@defaultrefcontext{0}{giannakouris2010}{none/global//global/global}
\abx@aux@defaultrefcontext{0}{carrillo-larco2019}{none/global//global/global}
\abx@aux@defaultrefcontext{0}{goyal2019}{none/global//global/global}
\abx@aux@defaultrefcontext{0}{chua2014}{none/global//global/global}
\abx@aux@defaultrefcontext{0}{glucowise2019}{none/global//global/global}
\abx@aux@defaultrefcontext{0}{mori2012}{none/global//global/global}
\abx@aux@defaultrefcontext{0}{tan2015}{none/global//global/global}
\abx@aux@defaultrefcontext{0}{vandervelden2019}{none/global//global/global}
\abx@aux@defaultrefcontext{0}{yan2020}{none/global//global/global}
\abx@aux@defaultrefcontext{0}{samsung2020}{none/global//global/global}
\abx@aux@defaultrefcontext{0}{fishbach2010}{none/global//global/global}
\abx@aux@defaultrefcontext{0}{burgers2015}{none/global//global/global}
\abx@aux@defaultrefcontext{0}{dellasega2012}{none/global//global/global}
